<?xml version="1.0" encoding="utf-8"?>
<!-- Generator: Adobe Illustrator 15.0.0, SVG Export Plug-In . SVG Version: 6.00 Build 0)  -->
<!DOCTYPE svg PUBLIC "-//W3C//DTD SVG 1.1//EN" "http://www.w3.org/Graphics/SVG/1.1/DTD/svg11.dtd">
<svg version="1.1" id="Layer_1" xmlns="http://www.w3.org/2000/svg" xmlns:xlink="http://www.w3.org/1999/xlink" x="0px" y="0px"
	 width="44.333px" height="23.667px" viewBox="0 0 44.333 23.667" enable-background="new 0 0 44.333 23.667" xml:space="preserve">
<polyline fill="none" stroke="#A7A9AC" stroke-width="2" stroke-miterlimit="10" points="42.316,22.382 22.313,2.208 2.316,22.382 
	"/>
</svg>
